Scores from scikit: 
{'benign': {'precision': 0.8056112224448898, 'recall': 0.7642585551330798, 'f1-score': 0.784390243902439, 'support': 526}, 'malignant': {'precision': 0.8926406926406927, 'recall': 0.9140070921985816, 'f1-score': 0.9031975470871659, 'support': 1128}, 'accuracy': 0.8663845223700121, 'macro avg': {'precision': 0.8491259575427912, 'recall': 0.8391328236658306, 'f1-score': 0.8437938954948025, 'support': 1654}, 'weighted avg': {'precision': 0.8649638478263081, 'recall': 0.8663845223700121, 'f1-score': 0.865414813426243, 'support': 1654}}
Scores from keras: 
Loss: 0.34541765295972043
Accuracy: 0.8663845
Precision: 0.8926407
Recall: 0.91400707

Model: "model_48"
__________________________________________________________________________________________________
Layer (type)                    Output Shape         Param #     Connected to                     
==================================================================================================
input_12 (InputLayer)           [(None, 230, 350, 3) 0                                            
__________________________________________________________________________________________________
conv1_general (Conv2D)          (None, 230, 350, 16) 448         input_12[0][0]                   
__________________________________________________________________________________________________
max_pooling1_general (MaxPoolin (None, 76, 116, 16)  0           conv1_general[0][0]              
__________________________________________________________________________________________________
dropout1_general (Dropout)      (None, 76, 116, 16)  0           max_pooling1_general[0][0]       
__________________________________________________________________________________________________
conv2_general (Conv2D)          (None, 76, 116, 32)  4640        dropout1_general[0][0]           
__________________________________________________________________________________________________
max_pooling2_general (MaxPoolin (None, 25, 38, 32)   0           conv2_general[0][0]              
__________________________________________________________________________________________________
dropout2_general (Dropout)      (None, 25, 38, 32)   0           max_pooling2_general[0][0]       
__________________________________________________________________________________________________
conv3_general (Conv2D)          (None, 25, 38, 64)   18496       dropout2_general[0][0]           
__________________________________________________________________________________________________
lambda_39 (Lambda)              (None, 230, 350)     0           conv3_general[0][0]              
__________________________________________________________________________________________________
lambda_40 (Lambda)              (None, 230, 350)     0           lambda_39[0][0]                  
__________________________________________________________________________________________________
lambda_41 (Lambda)              (1, None, 230, 350,  0           lambda_40[0][0]                  
                                                                 input_12[0][0]                   
__________________________________________________________________________________________________
tf_op_layer_Squeeze_13 (TensorF [(None, 230, 350, 3) 0           lambda_41[0][0]                  
__________________________________________________________________________________________________
conv2d_1_local (Conv2D)         (None, 230, 350, 16) 448         tf_op_layer_Squeeze_13[0][0]     
__________________________________________________________________________________________________
pooling1_local (MaxPooling2D)   (None, 76, 116, 16)  0           conv2d_1_local[0][0]             
__________________________________________________________________________________________________
dropout1_local (Dropout)        (None, 76, 116, 16)  0           pooling1_local[0][0]             
__________________________________________________________________________________________________
conv2d_2_local (Conv2D)         (None, 76, 116, 32)  4640        dropout1_local[0][0]             
__________________________________________________________________________________________________
pooling2_local (MaxPooling2D)   (None, 25, 38, 32)   0           conv2d_2_local[0][0]             
__________________________________________________________________________________________________
dropout2_local (Dropout)        (None, 25, 38, 32)   0           pooling2_local[0][0]             
__________________________________________________________________________________________________
conv2d_3_local (Conv2D)         (None, 25, 38, 64)   18496       dropout2_local[0][0]             
__________________________________________________________________________________________________
pooling3_local (MaxPooling2D)   (None, 8, 12, 64)    0           conv2d_3_local[0][0]             
__________________________________________________________________________________________________
dropout3_local (Dropout)        (None, 8, 12, 64)    0           pooling3_local[0][0]             
__________________________________________________________________________________________________
flatten_local (Flatten)         (None, 6144)         0           dropout3_local[0][0]             
__________________________________________________________________________________________________
dense_local (Dense)             (None, 512)          3146240     flatten_local[0][0]              
__________________________________________________________________________________________________
output_local (Dense)            (None, 1)            513         dense_local[0][0]                
==================================================================================================
Total params: 3,217,505
Trainable params: 3,170,337
Non-trainable params: 47,168
__________________________________________________________________________________________________