Scores from scikit: 
{'benign': {'precision': 0.8822222222222222, 'recall': 0.7845849802371542, 'f1-score': 0.8305439330543934, 'support': 506}, 'malignant': {'precision': 0.9048865619546248, 'recall': 0.9513761467889909, 'f1-score': 0.9275491949910555, 'support': 1090}, 'accuracy': 0.8984962406015038, 'macro avg': {'precision': 0.8935543920884235, 'recall': 0.8679805635130725, 'f1-score': 0.8790465640227245, 'support': 1596}, 'weighted avg': {'precision': 0.8977010006108931, 'recall': 0.8984962406015038, 'f1-score': 0.8967943939008606, 'support': 1596}}
Scores from keras: 
Loss: 0.2664557076834717
Accuracy: 0.89849627
Precision: 0.90488654
Recall: 0.95137614

Model: "model_44"
__________________________________________________________________________________________________
Layer (type)                    Output Shape         Param #     Connected to                     
==================================================================================================
input_10 (InputLayer)           [(None, 230, 350, 3) 0                                            
__________________________________________________________________________________________________
conv1_general (Conv2D)          (None, 230, 350, 16) 448         input_10[0][0]                   
__________________________________________________________________________________________________
max_pooling1_general (MaxPoolin (None, 76, 116, 16)  0           conv1_general[0][0]              
__________________________________________________________________________________________________
dropout1_general (Dropout)      (None, 76, 116, 16)  0           max_pooling1_general[0][0]       
__________________________________________________________________________________________________
conv2_general (Conv2D)          (None, 76, 116, 32)  4640        dropout1_general[0][0]           
__________________________________________________________________________________________________
max_pooling2_general (MaxPoolin (None, 25, 38, 32)   0           conv2_general[0][0]              
__________________________________________________________________________________________________
dropout2_general (Dropout)      (None, 25, 38, 32)   0           max_pooling2_general[0][0]       
__________________________________________________________________________________________________
conv3_general (Conv2D)          (None, 25, 38, 64)   18496       dropout2_general[0][0]           
__________________________________________________________________________________________________
lambda_33 (Lambda)              (None, 230, 350)     0           conv3_general[0][0]              
__________________________________________________________________________________________________
lambda_34 (Lambda)              (None, 230, 350)     0           lambda_33[0][0]                  
__________________________________________________________________________________________________
lambda_35 (Lambda)              (1, None, 230, 350,  0           lambda_34[0][0]                  
                                                                 input_10[0][0]                   
__________________________________________________________________________________________________
tf_op_layer_Squeeze_11 (TensorF [(None, 230, 350, 3) 0           lambda_35[0][0]                  
__________________________________________________________________________________________________
conv2d_1_local (Conv2D)         (None, 230, 350, 16) 448         tf_op_layer_Squeeze_11[0][0]     
__________________________________________________________________________________________________
pooling1_local (MaxPooling2D)   (None, 76, 116, 16)  0           conv2d_1_local[0][0]             
__________________________________________________________________________________________________
dropout1_local (Dropout)        (None, 76, 116, 16)  0           pooling1_local[0][0]             
__________________________________________________________________________________________________
conv2d_2_local (Conv2D)         (None, 76, 116, 32)  4640        dropout1_local[0][0]             
__________________________________________________________________________________________________
pooling2_local (MaxPooling2D)   (None, 25, 38, 32)   0           conv2d_2_local[0][0]             
__________________________________________________________________________________________________
dropout2_local (Dropout)        (None, 25, 38, 32)   0           pooling2_local[0][0]             
__________________________________________________________________________________________________
conv2d_3_local (Conv2D)         (None, 25, 38, 64)   18496       dropout2_local[0][0]             
__________________________________________________________________________________________________
pooling3_local (MaxPooling2D)   (None, 8, 12, 64)    0           conv2d_3_local[0][0]             
__________________________________________________________________________________________________
dropout3_local (Dropout)        (None, 8, 12, 64)    0           pooling3_local[0][0]             
__________________________________________________________________________________________________
flatten_local (Flatten)         (None, 6144)         0           dropout3_local[0][0]             
__________________________________________________________________________________________________
dense_local (Dense)             (None, 512)          3146240     flatten_local[0][0]              
__________________________________________________________________________________________________
output_local (Dense)            (None, 1)            513         dense_local[0][0]                
==================================================================================================
Total params: 3,217,505
Trainable params: 3,170,337
Non-trainable params: 47,168
__________________________________________________________________________________________________