Scores from scikit: 
{'benign': {'precision': 0.8446215139442231, 'recall': 0.8330058939096268, 'f1-score': 0.8387734915924827, 'support': 509}, 'malignant': {'precision': 0.9226569608735213, 'recall': 0.9285714285714286, 'f1-score': 0.9256047466910087, 'support': 1092}, 'accuracy': 0.8981886321049344, 'macro avg': {'precision': 0.8836392374088722, 'recall': 0.8807886612405277, 'f1-score': 0.8821891191417457, 'support': 1601}, 'weighted avg': {'precision': 0.8978474402695159, 'recall': 0.8981886321049344, 'f1-score': 0.8979988073748627, 'support': 1601}}
Scores from keras: 
Loss: 0.307255970561813
Accuracy: 0.89818865
Precision: 0.92265695
Recall: 0.9285714

Model: "model_14"
_________________________________________________________________
Layer (type)                 Output Shape              Param #   
=================================================================
input_8 (InputLayer)         [(None, 230, 350, 3)]     0         
_________________________________________________________________
conv1_general (Conv2D)       (None, 230, 350, 16)      448       
_________________________________________________________________
max_pooling1_general (MaxPoo (None, 76, 116, 16)       0         
_________________________________________________________________
dropout1_general (Dropout)   (None, 76, 116, 16)       0         
_________________________________________________________________
conv2_general (Conv2D)       (None, 76, 116, 32)       4640      
_________________________________________________________________
max_pooling2_general (MaxPoo (None, 25, 38, 32)        0         
_________________________________________________________________
dropout2_general (Dropout)   (None, 25, 38, 32)        0         
_________________________________________________________________
conv3_general (Conv2D)       (None, 25, 38, 64)        18496     
_________________________________________________________________
max_pooling3_general (MaxPoo (None, 8, 12, 64)         0         
_________________________________________________________________
dropout3_general (Dropout)   (None, 8, 12, 64)         0         
_________________________________________________________________
flatten_general (Flatten)    (None, 6144)              0         
_________________________________________________________________
dense_general (Dense)        (None, 512)               3146240   
_________________________________________________________________
output_general (Dense)       (None, 1)                 513       
=================================================================
Total params: 6,340,674
Trainable params: 3,170,337
Non-trainable params: 3,170,337
_________________________________________________________________