Scores from scikit: 
{'benign': {'precision': 0.9287410926365796, 'recall': 0.7727272727272727, 'f1-score': 0.8435814455231931, 'support': 506}, 'malignant': {'precision': 0.902127659574468, 'recall': 0.9724770642201835, 'f1-score': 0.93598233995585, 'support': 1090}, 'accuracy': 0.9091478696741855, 'macro avg': {'precision': 0.9154343761055238, 'recall': 0.8726021684737282, 'f1-score': 0.8897818927395216, 'support': 1596}, 'weighted avg': {'precision': 0.9105652517608267, 'recall': 0.9091478696741855, 'f1-score': 0.906687319540484, 'support': 1596}}
Scores from keras: 
Loss: 0.21927054433263948
Accuracy: 0.90914786
Precision: 0.9021277
Recall: 0.9724771

Model: "model_18"
_________________________________________________________________
Layer (type)                 Output Shape              Param #   
=================================================================
input_10 (InputLayer)        [(None, 230, 350, 3)]     0         
_________________________________________________________________
conv1_general (Conv2D)       (None, 230, 350, 16)      448       
_________________________________________________________________
max_pooling1_general (MaxPoo (None, 76, 116, 16)       0         
_________________________________________________________________
dropout1_general (Dropout)   (None, 76, 116, 16)       0         
_________________________________________________________________
conv2_general (Conv2D)       (None, 76, 116, 32)       4640      
_________________________________________________________________
max_pooling2_general (MaxPoo (None, 25, 38, 32)        0         
_________________________________________________________________
dropout2_general (Dropout)   (None, 25, 38, 32)        0         
_________________________________________________________________
conv3_general (Conv2D)       (None, 25, 38, 64)        18496     
_________________________________________________________________
max_pooling3_general (MaxPoo (None, 8, 12, 64)         0         
_________________________________________________________________
dropout3_general (Dropout)   (None, 8, 12, 64)         0         
_________________________________________________________________
flatten_general (Flatten)    (None, 6144)              0         
_________________________________________________________________
dense_general (Dense)        (None, 512)               3146240   
_________________________________________________________________
output_general (Dense)       (None, 1)                 513       
=================================================================
Total params: 6,340,674
Trainable params: 3,170,337
Non-trainable params: 3,170,337
_________________________________________________________________