{'benign': {
'precision' NPV: 0.9076304973815119,
'recall' specificity : 0.7850806451612904,
'f1-score': 0.8399573466059431,
'support': 496.0},

'malignant': {
'precision': 0.9080464287350637,
'recall' sensitivity: 0.9622440614099854,
'f1-score' f1-score: 0.9340683989115289,
'support': 1085.8},

'accuracy': 0.9066896641614111,

'macro avg': {
'precision': 0.9078384630582879,
 'recall': 0.8736623532856379,
 'f1-score': 0.8870128727587361,
 'support': 1581.8},

  'weighted avg': {
  'precision': 0.9079183551143257,
  'recall': 0.9066896641614111,
  'f1-score': 0.9045583936503736,
   'support': 1581.8},

'mean_fpr': array([0.00000000e+00, 6.67111408e-04, 1.33422282e-03, ...,
       9.98665777e-01, 9.99332889e-01, 1.00000000e+00]),

'mean_tpr': array([0.        , 0.37299675, 0.37299675, ..., 1.        , 1.        ,
       1.        ]),

'mean_auc': 0.968683396012003}
