Scores from scikit: 
{'benign': {'precision': 0.7975352112676056, 'recall': 0.8612167300380228, 'f1-score': 0.8281535648994515, 'support': 526}, 'malignant': {'precision': 0.932780847145488, 'recall': 0.8980496453900709, 'f1-score': 0.9150858175248419, 'support': 1128}, 'accuracy': 0.8863361547762999, 'macro avg': {'precision': 0.8651580292065468, 'recall': 0.8796331877140469, 'f1-score': 0.8716196912121467, 'support': 1654}, 'weighted avg': {'precision': 0.8897704454092328, 'recall': 0.8863361547762999, 'f1-score': 0.8874398895436113, 'support': 1654}}
Scores from keras: 
Loss: 0.2942160941087283
Accuracy: 0.88633615
Precision: 0.93278086
Recall: 0.89804965

Model: "sequential_4"
_________________________________________________________________
Layer (type)                 Output Shape              Param #   
=================================================================
conv2d_27 (Conv2D)           (None, 230, 350, 16)      448       
_________________________________________________________________
max_pooling2d_27 (MaxPooling (None, 76, 116, 16)       0         
_________________________________________________________________
dropout_27 (Dropout)         (None, 76, 116, 16)       0         
_________________________________________________________________
conv2d_28 (Conv2D)           (None, 76, 116, 32)       4640      
_________________________________________________________________
max_pooling2d_28 (MaxPooling (None, 25, 38, 32)        0         
_________________________________________________________________
dropout_28 (Dropout)         (None, 25, 38, 32)        0         
_________________________________________________________________
conv2d_29 (Conv2D)           (None, 25, 38, 64)        18496     
_________________________________________________________________
max_pooling2d_29 (MaxPooling (None, 8, 12, 64)         0         
_________________________________________________________________
dropout_29 (Dropout)         (None, 8, 12, 64)         0         
_________________________________________________________________
flatten_9 (Flatten)          (None, 6144)              0         
_________________________________________________________________
dense_18 (Dense)             (None, 512)               3146240   
_________________________________________________________________
dense_19 (Dense)             (None, 1)                 513       
=================================================================
Total params: 3,170,337
Trainable params: 3,170,337
Non-trainable params: 0
_________________________________________________________________