Scores from scikit: 
{'benign': {'precision': 0.6893491124260355, 'recall': 0.9155206286836935, 'f1-score': 0.7864978902953587, 'support': 509}, 'malignant': {'precision': 0.9535135135135135, 'recall': 0.8076923076923077, 'f1-score': 0.8745661874070402, 'support': 1092}, 'accuracy': 0.8419737663960025, 'macro avg': {'precision': 0.8214313129697746, 'recall': 0.8616064681880007, 'f1-score': 0.8305320388511994, 'support': 1601}, 'weighted avg': {'precision': 0.8695287039235533, 'recall': 0.8419737663960025, 'f1-score': 0.8465669599055748, 'support': 1601}}
Scores from keras: 
Loss: 0.41452105422321633
Accuracy: 0.8419738
Precision: 0.9535135
Recall: 0.8076923

Model: "sequential_0"
_________________________________________________________________
Layer (type)                 Output Shape              Param #   
=================================================================
conv2d_15 (Conv2D)           (None, 230, 350, 16)      448       
_________________________________________________________________
max_pooling2d_15 (MaxPooling (None, 76, 116, 16)       0         
_________________________________________________________________
dropout_15 (Dropout)         (None, 76, 116, 16)       0         
_________________________________________________________________
conv2d_16 (Conv2D)           (None, 76, 116, 32)       4640      
_________________________________________________________________
max_pooling2d_16 (MaxPooling (None, 25, 38, 32)        0         
_________________________________________________________________
dropout_16 (Dropout)         (None, 25, 38, 32)        0         
_________________________________________________________________
conv2d_17 (Conv2D)           (None, 25, 38, 64)        18496  6144
_________________________________________________________________
max_pooling2d_17 (MaxPooling (None, 8, 12, 64)         0         
_________________________________________________________________
dropout_17 (Dropout)         (None, 8, 12, 64)         0         
_________________________________________________________________
flatten_5 (Flatten)          (None, 6144)              0         
_________________________________________________________________
dense_10 (Dense)             (None, 512)               3146240   
_________________________________________________________________
dense_11 (Dense)             (None, 1)                 513       
=================================================================
Total params: 3,170,337
Trainable params: 3,170,337
Non-trainable params: 0
_________________________________________________________________