{
  'benign': {
    'precision': 0.8748424967723484,
    'recall': 0.788805698107011,
    'f1-score': 0.827978490745678,
    'support': 496.0
  },
  'malignant': {
    'precision': 0.9080682321493561,
    'recall': 0.9477422910112747,
    'f1-score': 0.9272034443897301,
    'support': 1085.8
  },
  'accuracy': 0.8977483010283288,
  'macro avg': {
    'precision': 0.8914553644608523,
    'recall': 0.8682739945591427,
    'f1-score': 0.877590967567704,
    'support': 1581.8
  },
  'weighted avg': {
    'precision': 0.8978357648898427,
    'recall': 0.8977483010283288,
    'f1-score': 0.8960921747607429,
    'support': 1581.8
  }
}